<?xml version="1.0" standalone="no"?>
<!DOCTYPE svg PUBLIC "-//W3C//DTD SVG 20010904//EN"
 "http://www.w3.org/TR/2001/REC-SVG-20010904/DTD/svg10.dtd">
<svg version="1.0" xmlns="http://www.w3.org/2000/svg"
 width="603.000000pt" height="309.000000pt" viewBox="0 0 603.000000 309.000000"
 preserveAspectRatio="xMidYMid meet">
<metadata>
Created by potrace 1.16, written by Peter Selinger 2001-2019
</metadata>
<g transform="translate(0.000000,309.000000) scale(0.100000,-0.100000)"
fill="#000000" stroke="none">
<path d="M132 3075 c-101 -44 -136 -101 -130 -214 l3 -77 665 -1329 c600
-1200 670 -1334 715 -1380 99 -101 224 -97 326 12 54 56 703 922 727 969 42
82 64 176 69 295 9 200 12 192 -319 849 -160 316 -307 597 -326 624 -73 101
-224 202 -366 245 -66 20 -86 21 -700 21 -527 -1 -636 -3 -664 -15z"/>
<path d="M2376 3080 c-50 -16 -105 -61 -127 -107 -17 -35 -20 -57 -17 -114 l4
-70 667 -1334 c386 -773 680 -1349 698 -1370 94 -107 243 -106 344 3 69 74
698 919 727 976 66 131 89 338 54 489 -11 48 -97 229 -312 659 l-296 592 -82
81 c-65 65 -100 90 -176 128 -159 80 -126 77 -830 76 -344 0 -638 -5 -654 -9z"/>
<path d="M4602 3077 c-52 -19 -103 -66 -124 -115 -16 -36 -19 -59 -15 -111 4
-62 18 -93 218 -490 118 -233 226 -443 241 -467 41 -66 107 -104 180 -104 70
0 111 16 163 61 48 43 721 937 746 993 42 93 14 181 -71 224 l-44 22 -631 -1
c-458 0 -639 -4 -663 -12z m1273 -139 c4 -3 4 -17 0 -29 -13 -39 -698 -941
-730 -961 -38 -23 -38 -23 -75 9 -24 19 -88 138 -246 456 -240 479 -242 485
-174 520 32 16 78 17 627 15 325 -2 594 -6 598 -10z"/>
</g>
</svg>
